[
    {
      "id": 1,
      "title": "5 ways to create inspiring articles",
      "author": "by Joe Bloggs",
      "desc": "Lorem ipsum dolor sit amet, consectetur adipiscing elit, sed do eiusmod tempor innt ut labore et dolore magna aliqua. Mattis molestie a iaculis at erat pellentesque adipiscing. Vulputate dignissim suspendisse in est ante in nibh. Purus non enim praesent elementum.",
      "img": "https://source.unsplash.com/9XrYUO8laY4/800x600"
    },
    {
      "id": 2,
      "title": "5 ways to create inspiring articles",
      "author": "by Joe Bloggs",
      "desc": "Lorem ipsum dolor sit amet, consectetur adipiscing elit, sed do eiusmod tempor innt ut labore et dolore magna aliqua. Mattis molestie a iaculis at erat pellentesque adipiscing. Vulputate dignissim suspendisse in est ante in nibh. Purus non enim praesent elementum.",
      "img": "https://source.unsplash.com/AeoslwNGA-8/800x600"
    },
    {
      "id": 3,
      "title": "5 ways to create inspiring articles",
      "author": "by Joe Bloggs",
      "desc": "Lorem ipsum dolor sit amet, consectetur adipiscing elit, sed do eiusmod tempor innt ut labore et dolore magna aliqua. Mattis molestie a iaculis at erat pellentesque adipiscing. Vulputate dignissim suspendisse in est ante in nibh. Purus non enim praesent elementum.",
      "img": "https://source.unsplash.com/a0U58gHCVRw/800x600"
    },
    {
      "id": 4,
      "title": "5 ways to create inspiring articles",
      "author": "by Joe Bloggs",
      "desc": "Lorem ipsum dolor sit amet, consectetur adipiscing elit, sed do eiusmod tempor innt ut labore et dolore magna aliqua. Mattis molestie a iaculis at erat pellentesque adipiscing. Vulputate dignissim suspendisse in est ante in nibh. Purus non enim praesent elementum.",
      "img": "https://source.unsplash.com/a0U58gHCVRw/800x600"
    },
    {
      "id": 5,
      "title": "5 ways to create inspiring articles",
      "author": "by Joe Bloggs",
      "desc": "Lorem ipsum dolor sit amet, consectetur adipiscing elit, sed do eiusmod tempor innt ut labore et dolore magna aliqua. Mattis molestie a iaculis at erat pellentesque adipiscing. Vulputate dignissim suspendisse in est ante in nibh. Purus non enim praesent elementum.",
      "img": "https://source.unsplash.com/AeoslwNGA-8/800x600"
    },
    {
      "id": 6,
      "title": "5 ways to create inspiring articles",
      "author": "by Joe Bloggs",
      "desc": "Lorem ipsum dolor sit amet, consectetur adipiscing elit, sed do eiusmod tempor innt ut labore et dolore magna aliqua. Mattis molestie a iaculis at erat pellentesque adipiscing. Vulputate dignissim suspendisse in est ante in nibh. Purus non enim praesent elementum.",
      "img": "https://source.unsplash.com/a0U58gHCVRw/800x600"
    }
]